Lab3/project_1.sim/sim_1/impl/timing/xsim/simulate.log
Time resolution is 1 ps
WARNING: file ../../../../satadd_vectors.txt could not be opened
          1(              200000): PASS, mode: 2, a: 004, b: 005, y: 009                                                                                                    #

          2(              300000): PASS, mode: 1, a: 004, b: 005, y: 009                                                                                                    #

          3(              400000): PASS, mode: 1, a: 004, b: 005, y: 009                                                                                                    #

          4(              500000): PASS, mode: 2, a: b00, b: 100, y: c00                                                                                                    #

          5(              600000): PASS, mode: 1, a: b00, b: 100, y: c00                                                                                                    #

          6(              700000): PASS, mode: 1, a: b00, b: 100, y: c00                                                                                                    #

          7(              800000): PASS, mode: 2, a: 7ff, b: 001, y: 800                                                                                                    #

          8(              900000): PASS, mode: 1, a: 7ff, b: 001, y: 7ff                                                                                                    #

          9(             1000000): PASS, mode: 0, a: 7ff, b: 001, y: 800                                                                                                    #

         10(             1100000): PASS, mode: 2, a: fff, b: 001, y: 000                                                                                                    #

         11(             1200000): PASS, mode: 1, a: fff, b: 001, y: 000                                                                                                    #

         12(             1300000): PASS, mode: 0, a: fff, b: 001, y: fff                                                                                            #unsigned

         13(             1400000): PASS, mode: 2, a: 800, b: fff, y: 7ff                                                                                                    #

         14(             1500000): PASS, mode: 1, a: 800, b: fff, y: 800                                                                                                    #

         15(             1600000): PASS, mode: 0, a: 800, b: fff, y: fff                                                                                                    #

         16(             1700000): PASS, mode: 0, a: 86c, b: fde, y: fff        
   ²·€ ²½  £| ²½         ûüúw˜õà       
   úw˜   
²·€    
²½  ²½      Ý,       


         17(             1800000): PASS, mode: 0, a: 597, b: ecc, y: fff     ÷ÈÈ    ;É  ú?`øˆøhøH                       ;Ü  £uè   ¢¾È÷çø  Ï         @4    v

         18(             1900000): PASS, mode: 0, a: f93, b: 539, y: fff           ²·€ ²½  £Š ²½         
 úŽ`õà          úŽ`   ²·€    ²½  ²½  õàÝ,úŽ`    

         19(             2000000): PASS, mode: 0, a: f68, b: d06, y: fff     ú‹     šÚp    øˆøhøH                       ;Ü  £†x   ¢·È÷÷¸  E       : @;   ©

         20(             2100000): PASS, mode: 0, a: 1a3, b: 2fc, y: 49f     ÷ÈÈ    ;É  ú?`÷ùÈ÷ø¨÷÷ˆ                       ;Ü  £uh   ¢Äx÷à   ¢         @;   ©

         21(             2200000): PASS, mode: 0, a: 551, b: a5c, y: fad           ²·€ ²½  ¢ù ²½         ¡åû! õà          û!    ²·€    ²½  ²½      Ý,       

         22(             2300000): PASS, mode: 0, a: d6d, b: f33, y: fff           ²·€ ²½  £} ²½          (ƒû! õà          û!    ²·€    ²½  ²½  õàÝ,û!     

         23(             2400000): PASS, mode: 0, a: 0a8, b: c50, y: cf8        	   ²·€ ²½  £g ²½         !®{ûeØõà       	   ûeØ   ²·€    	²½  ²½  õàÝ,ûeØ    

         24(             2500000): PASS, mode: 0, a: 916, b: de9, y: fff           ²·€ ²½  ¢ù ²½         #5Ìû! õà          û!    ²·€    ²½  ²½  õàÝ,û!     

         25(             2600000): PASS, mode: 0, a: d7b, b: 38a, y: fff           ²·€ ²½  £Š ²½         $¼ úŽ`õà          úŽ`   ²·€    ²½  ²½  õàÝ,úŽ`    

         26(             2700000): PASS, mode: 0, a: a10, b: 8a8, y: fff           ²·€ ²½  £ ²½         &Cúw˜õà       
   úw˜   ²·€    ²½  ²½  õàÝ,úw˜    

         27(             2800000): PASS, mode: 0, a: f96, b: 9f9, y: fff           ²·€ ²½  £Š ²½         'Èúw˜õà       
   úw˜   ²·€    ²½  ²½  õàÝ,úw˜    

         28(             2900000): PASS, mode: 0, a: 6f0, b: 0ed, y: 7dd     <       ;É      ÷ùÈ÷ø¨÷÷ˆ                       ;Ü  ¢Õè   ¢ÏÈ÷É˜   5       : @;   ©

         29(             3000000): PASS, mode: 0, a: 5e5, b: e82, y: fff           ²·€ ²½  ¢ò ²½         *ÖæúÔõà          úÔ   ²·€    ²½  ²½  õàÝ,úÔ    

         30(             3100000): PASS, mode: 0, a: d34, b: 564, y: fff           ²·€ ²½  £  ²½         ,] úŽ`õà          úŽ`   ²·€    ²½  ²½  õàÝ,úŽ`    

         31(             3200000): PASS, mode: 1, a: 893, b: ba1, y: 800     <       ;É      ÷ê÷èè÷çÈ                       ;Ü  £“    £uØ÷à           @;   ©

         32(             3300000): PASS, mode: 1, a: af1, b: eb7, y: 9a8           ²·€ ²½  ¢÷ ²½         /joûpõà          ûp   ²·€    ²½  ²½      Ý,       

         33(             3400000): PASS, mode: 1, a: a04, b: c54, y: 800           ²·€ ²½  ¢ù ²½         0ñ~û! õà          û!    ²·€    ²½  ²½  õàÝ,û!     

         34(             3500000): PASS, mode: 1, a: 84e, b: a98, y: 800           ²·€ ²½  £ ²½         2v%û)xõà          û)x   ²·€    ²½  ²½  õàÝ,û)x    

         35(             3600000): PASS, mode: 1, a: 967, b: 8e9, y: 800     <       ;É      ÷Ð(÷Ï÷Íè                       ;Ü  £¤   £†h÷Î  “       : @-À   G

         36(             3700000): PASS, mode: 1, a: af7, b: ce5, y: 800     ÷ç(    ;É  ú,ÐøˆøhøH                       ;Ü  £†x   ¢·È÷÷¸  ¹         @;   ©

         37(             3800000): PASS, mode: 1, a: 92d, b: c4b, y: 800           ²·€ ²½  £# ²½         7vû)xõà          û)x   ²·€    ²½  ²½  õàÝ,û)x    

         38(             3900000): PASS, mode: 1, a: acf, b: bcb, y: 800           ²·€ ²½  £Š ²½         8’õûpõà          ûp   ²·€    ²½  ²½  õàÝ,ûp    

         39(             4000000): PASS, mode: 1, a: bd6, b: c76, y: 84c           ²·€ ²½  £{ ²½         : û)xõà          û)x   ²·€    ²½  ²½  õàÝ,û)x    

         40(             4100000): PASS, mode: 1, a: be0, b: d8b, y: 96b           ²·€ ²½  ¢ù ²½         ;Ÿ}û! õà          û!    ²·€    ²½  ²½      Ý,       

         41(             4200000): PASS, mode: 1, a: a97, b: 864, y: 800           ²·€ ²½  £| ²½         =&NúÔõà          úÔ   ²·€    ²½  ²½  õàÝ,úÔ    

         42(             4300000): PASS, mode: 1, a: aa9, b: e2f, y: 8d8           ²·€ ²½  £{ ²½         >¨bû)xõà          û)x   ²·€    ²½  ²½  õàÝ,û)x    

         43(             4400000): PASS, mode: 1, a: a03, b: e78, y: 87b           ²·€ ²½  £ ²½         @2Æû]€õà          û]€   ²·€    ²½  ²½  õàÝ,û]€    

         44(             4500000): PASS, mode: 1, a: 9ec, b: b94, y: 800           ²·€ ²½  ¢ò ²½         A¹ÍúÔõà          úÔ   ²·€    ²½  ²½  õàÝ,úÔ    

         45(             4600000): PASS, mode: 1, a: 92a, b: ccb, y: 800           ²·€ ²½  ¢ú ²½         C<Èû)xõà          û)x   ²·€    ²½  ²½  õàÝ,û)x    

         46(             4700000): PASS, mode: 1, a: 50b, b: 6d3, y: 7ff     <       ;É      ÷ê÷èè÷çÈ                       ;Ü  £uè   ¢¾È÷çø  ­       c @4    v

         47(             4800000): PASS, mode: 1, a: 5af, b: 405, y: 7ff           ²·€ ²½  £} ²½         FM¥úo@õà           úo@   ²·€    ²½  ²½  õàÝ,úo@    

         48(             4900000): PASS, mode: 1, a: 747, b: 4a5, y: 7ff     <       ;É      øˆøhøH                       ;Ü  £cX   £dÈ÷Æ8  ½         @;   ©

         49(             5000000): PASS, mode: 1, a: 656, b: 02d, y: 683     <       ;É      ÷Ð(÷Ï÷Íè                       ;Ü  ¢œè   £tØø6¸   è         @-À   G

         50(             5100000): PASS, mode: 1, a: 568, b: 2ea, y: 7ff           ²·€ ²½  £˜ ²½         JáŸû]€õà          û]€   ²·€    ²½  ²½      Ý,       

         51(             5200000): PASS, mode: 1, a: 654, b: 2cc, y: 7ff           ²·€ ²½  £ ²½         Lh½û)xõà          û)x   ²·€    ²½  ²½  õàÝ,û)x    

         52(             5300000): PASS, mode: 1, a: 400, b: 301, y: 701     <       ;É      øˆøhøH                       ;Ü  £†x   ¢·È÷÷¸   {         @;   ©

         53(             5400000): PASS, mode: 1, a: 589, b: 2a5, y: 7ff           ²·€ ²½  £} ²½         Ouãû! õà          û!    ²·€    ²½  ²½  õàÝ,û!     

         54(             5500000): PASS, mode: 1, a: 426, b: 0df, y: 505           ²·€ ²½  £ ²½         Pøhû)xõà          û)x   ²·€    ²½  ²½      Ý,       

         55(             5600000): PASS, mode: 1, a: 436, b: 53a, y: 7ff           ²·€ ²½  £ ²½         RƒKû]€õà          û]€   ²·€    ²½  ²½  õàÝ,û]€    

         56(             5700000): PASS, mode: 1, a: 79f, b: 5cc, y: 7ff           ²·€ ²½  £ ²½         TÈû)xõà          û)x   ²·€    ²½  ²½  õàÝ,û)x    

         57(             5800000): PASS, mode: 1, a: 691, b: 1ce, y: 7ff     <       ;É      øˆøhøH                       ;Ü  ¢œè   £¤üø6¸  6         @;   ©

         58(             5900000): PASS, mode: 1, a: 6a8, b: 144, y: 7ec           ²·€ ²½  ¢ú ²½         W˜û)xõà          û)x   ²·€    ²½  ²½  õàÝ,û)x    

         59(             6000000): PASS, mode: 1, a: 65b, b: 010, y: 66b           ²·€ ²½  £" ²½         XžÜûpõà          ûp   ²·€    ²½  ²½      Ý,       

         60(             6100000): PASS, mode: 1, a: 4f5, b: 6c6, y: 7ff           ²·€ ²½  £˜ ²½         Z$û]€õà          û]€   ²·€    ²½  ²½  õàÝ,û]€    

         61(             6200000): PASS, mode: 1, a: e1c, b: 134, y: f50           ²·€ ²½  ¢ó ²½         [©ãúw˜õà       
   úw˜   ²·€    ²½  ²½  õàÝ,úw˜    

         62(             6300000): PASS, mode: 1, a: 8f8, b: 7ef, y: 0e7           ²·€ ²½  £Ç ²½         ]0/û)xõà          û)x   ²·€    ²½  ²½  õàÝ,û)x    

         63(             6400000): PASS, mode: 1, a: dfe, b: 17a, y: f78           ²·€ ²½  £} ²½         ^¸,û! õà          û!    ²·€    ²½  ²½  õàÝ,û!     

         64(             6500000): PASS, mode: 1, a: 90f, b: 318, y: c27           ²·€ ²½  £$ ²½         `>hû]€õà          û]€   ²·€    ²½  ²½      Ý,       

         65(             6600000): PASS, mode: 1, a: b8b, b: 7d3, y: 35e           ²·€ ²½  £# ²½         aÅcû! õà          û!    ²·€    ²½  ²½  õàÝ,û!     

         66(             6700000): PASS, mode: 1, a: ee8, b: 6dc, y: 5c4           ²·€ ²½  £| ²½         cLúÔõà          úÔ   ²·€    ²½  ²½  õàÝ,úÔ    

         67(             6800000): PASS, mode: 1, a: d20, b: 7e0, y: 500           ²·€ ²½  £ ²½         dÒ¬û! õà          û!    ²·€    ²½  ²½  õàÝ,û!     

         68(             6900000): PASS, mode: 1, a: b7a, b: 24f, y: dc9           ²·€ ²½  ¢þ ²½         fYþû]€õà          û]€   ²·€    ²½  ²½  õàÝ,û]€    

         69(             7000000): PASS, mode: 1, a: c9f, b: 5b9, y: 258           ²·€ ²½  £} ²½         gßãû! õà          û!    ²·€    ²½  ²½      Ý,       

         70(             7100000): PASS, mode: 1, a: 995, b: 36f, y: d04           ²·€ ²½  £g ²½         if]û]€õà   