Lab3/lab3_jpc496/Lab3_part2/project_1.sim/sim_1/behav/xsim/simulate.log
Time resolution is 1 ps
          1(              200000): PASS, mode: 2, a: 004, b: 005, y: 009                                                                                                    #

          2(              300000): PASS, mode: 1, a: 004, b: 005, y: 009                                                                                                    #

          3(              400000): PASS, mode: 1, a: 004, b: 005, y: 009                                                                                                    #

          4(              500000): PASS, mode: 2, a: b00, b: 100, y: c00                                                                                                    #

          5(              600000): PASS, mode: 1, a: b00, b: 100, y: c00                                                                                                    #

          6(              700000): PASS, mode: 1, a: b00, b: 100, y: c00                                                                                                    #

          7(              800000): PASS, mode: 2, a: 7ff, b: 001, y: 800                                                                                                    #

          8(              900000): PASS, mode: 1, a: 7ff, b: 001, y: 7ff                                                                                                    #

          9(             1000000): PASS, mode: 0, a: 7ff, b: 001, y: 800                                                                                                    #

         10(             1100000): PASS, mode: 2, a: fff, b: 001, y: 000                                                                                                    #

         11(             1200000): PASS, mode: 1, a: fff, b: 001, y: 000                                                                                                    #

         12(             1300000): PASS, mode: 0, a: fff, b: 001, y: fff                                                                                            #unsigned

         13(             1400000): PASS, mode: 2, a: 800, b: fff, y: 7ff                                                                                                    #

         14(             1500000): PASS, mode: 1, a: 800, b: fff, y: 800                                                                                                    #

         15(             1600000): PASS, mode: 0, a: 800, b: fff, y: fff                                                                                                    #

         16(             1700000): PASS, mode: 0, a: 86c, b: fde, y: fff  a(      78Ä         ∂à a(7_   ∑(    73Ä  ∑(           a(  ˇ         77Ä          

         17(             1800000): PASS, mode: 0, a: 597, b: ecc, y: fff  0 78  aÿ78Ä  ºò73Ä    7(Ä a( ∂à   73Ä         7_   ∑(      ˇ  ˇ        ?p    7:     

         18(             1900000): PASS, mode: 0, a: f93, b: 539, y: fff  0     ΩP78Ä            7(Ä a( ∂à   73Ä         7_   ∑(      ˇ  ˇ        ?p    7:     

         19(             2000000): PASS, mode: 0, a: f68, b: d06, y: fff  0     ΩP78Ä            7(Ä a( ∂à   73Ä         7_   ∑(      ˇ  ˇ        ?p    7:     

         20(             2100000): PASS, mode: 0, a: 1a3, b: 2fc, y: 49f  0     ΩP78Ä            7(Ä a( ∂à   73Ä         7_   ∑(      ˇ  ˇ        ?p    7:     

         21(             2200000): PASS, mode: 0, a: 551, b: a5c, y: fad  a(      78Ä         ∂à a(7_   ∑(    73Ä  ∑(           a(  ü  ü      77Ä   7:     

         22(             2300000): PASS, mode: 0, a: d6d, b: f33, y: fff  a(      78Ä         ∂à a(7_   ∑(    73Ä  ∑(           a(  ≠  ≠      77Ä   7:     

         23(             2400000): PASS, mode: 0, a: 0a8, b: c50, y: cf8  0     ΩP78Ä            7(Ä a( ∂à   73Ä         7_   ∑(      ˇ  ˇ        ?p    7:     

         24(             2500000): PASS, mode: 0, a: 916, b: de9, y: fff  a(      78Ä         ∂à a(7_   ∑(    73Ä  ∑(           a(  ¯  ¯      77Ä   7:     

         25(             2600000): PASS, mode: 0, a: d7b, b: 38a, y: fff  bà    ΩP73Ä         7_   Ω      ˇ  ˇ          7_   ∑(      ˇ  ˇ        ?p    7:     

         26(             2700000): PASS, mode: 0, a: a10, b: 8a8, y: fff  0     ΩP78Ä            7(Ä a( ∂à   73Ä         7_   ∑(      ˇ  ˇ        ?p   7:     

         27(             2800000): PASS, mode: 0, a: f96, b: 9f9, y: fff  bà    ΩP73Ä         7_   Ω      ˇ  ˇ          7_   ∑(      ˇ  ˇ        ?p    7:     

         28(             2900000): PASS, mode: 0, a: 6f0, b: 0ed, y: 7dd  0 78  aÿ78Ä  ºò73Ä    7(Ä a( ∂à   73Ä         7_   ∑(      ˇ  ˇ        ?p    7:     

         29(             3000000): PASS, mode: 0, a: 5e5, b: e82, y: fff  0 78  aÿ78Ä  ºò73Ä    7(Ä a( ∂à   73Ä         7_   ∑(      ›  ›      77Ä   7:     

         30(             3100000): PASS, mode: 0, a: d34, b: 564, y: fff  0     ΩP78Ä            7(Ä a( ∂à   73Ä         7_   ∑(      ˇ  ˇ        ?p   7:     

         31(             3200000): PASS, mode: 1, a: 893, b: ba1, y: 800  0     ΩP78Ä            7(Ä a( ∂à   73Ä         7_   ∑(      ˇ  ˇ        ?p    7:     

         32(             3300000): PASS, mode: 1, a: af1, b: eb7, y: 9a8  bà    ΩP73Ä         7_   Ω      ˇ  ˇ          7_   ∑(                  ?p    7:     

         33(             3400000): PASS, mode: 1, a: a04, b: c54, y: 800  a(      78Ä         ∂à a(7_   ∑(    73Ä  ∑(           a(  	®  	†      77Ä   7:     

         34(             3500000): PASS, mode: 1, a: 84e, b: a98, y: 800  a(      78Ä         ∂à a(7_   ∑(    73Ä  ∑(           a(             77Ä   7:     

         35(             3600000): PASS, mode: 1, a: 967, b: 8e9, y: 800  bà    ΩP73Ä         7_   Ω      ˇ  ˇ          7_   ∑(                  ?p    7:     

         36(             3700000): PASS, mode: 1, a: af7, b: ce5, y: 800  bà    ΩP73Ä         7_   Ω      ˇ  ˇ          7_   ∑(                  ?p    7:     

         37(             3800000): PASS, mode: 1, a: 92d, b: c4b, y: 800  a(      78Ä         ∂à a(7_   ∑(    73Ä  ∑(           a(             77Ä   7:     

         38(             3900000): PASS, mode: 1, a: acf, b: bcb, y: 800  bà    ΩP73Ä         7_   Ω      ˇ  ˇ          7_   ∑(                  ?p    7:     

         39(             4000000): PASS, mode: 1, a: bd6, b: c76, y: 84c  bà    ΩP73Ä         7_   Ω      ˇ  ˇ          7_   ∑(                  ?p    7:     

         40(             4100000): PASS, mode: 1, a: be0, b: d8b, y: 96b  a(      78Ä         ∂à a(7_   ∑(    73Ä  ∑(           a(  L         77Ä   7:     

         41(             4200000): PASS, mode: 1, a: a97, b: 864, y: 800  a(      78Ä         ∂à a(7_   ∑(    73Ä  ∑(           a(  	k  	k      77Ä   7:     

         42(             4300000): PASS, mode: 1, a: aa9, b: e2f, y: 8d8  bà    ΩP73Ä         7_   Ω      ˇ  ˇ          7_   ∑(                  ?p   7:     

         43(             4400000): PASS, mode: 1, a: a03, b: e78, y: 87b  a(      78Ä         ∂à a(7_   ∑(    73Ä  ∑(           a(  ÿ  –      77Ä   7:     

         44(             4500000): PASS, mode: 1, a: 9ec, b: b94, y: 800  a(      78Ä         ∂à a(7_   ∑(    73Ä  ∑(           a(  {  {      77Ä   7:     

         45(             4600000): PASS, mode: 1, a: 92a, b: ccb, y: 800  bà    ΩP73Ä         7_   Ω      ˇ  ˇ          7_   ∑(                  ?p    7:     

         46(             4700000): PASS, mode: 1, a: 50b, b: 6d3, y: 7ff  bà    ΩP73Ä         7_   Ω      ˇ  ˇ          7_   ∑(                  ?p    7:     

         47(             4800000): PASS, mode: 1, a: 5af, b: 405, y: 7ff  0     ΩP78Ä            7(Ä a( ∂à   73Ä         7_   ∑(      ˇ  ˇ        ?p    7:     

         48(             4900000): PASS, mode: 1, a: 747, b: 4a5, y: 7ff  0     ΩP78Ä            7(Ä a( ∂à   73Ä         7_   ∑(      ˇ  ˇ        ?p    7:     

         49(             5000000): PASS, mode: 1, a: 656, b: 02d, y: 683  0     ΩP78Ä            7(Ä a( ∂à   73Ä         7_   ∑(      ˇ  ˇ        ?p    7:     

         50(             5100000): PASS, mode: 1, a: 568, b: 2ea, y: 7ff  a(      78Ä         ∂à a(7_   ∑(    73Ä  ∑(           a(  É        77Ä   7:     

         51(             5200000): PASS, mode: 1, a: 654, b: 2cc, y: 7ff  a(      78Ä         ∂à a(7_   ∑(    73Ä  ∑(           a(  ˇ   R      77Ä   7:     

         52(             5300000): PASS, mode: 1, a: 400, b: 301, y: 701  0     ΩP78Ä            7(Ä a( ∂à   73Ä         7_   ∑(      ˇ  ˇ        ?p    7:     

         53(             5400000): PASS, mode: 1, a: 589, b: 2a5, y: 7ff  a(      78Ä         ∂à a(7_   ∑(    73Ä  ∑(           a(          77Ä   7:     

         54(             5500000): PASS, mode: 1, a: 426, b: 0df, y: 505  a(      78Ä         ∂à a(7_   ∑(    73Ä  ∑(           a(  ˇ   .      77Ä   7:     

         55(             5600000): PASS, mode: 1, a: 436, b: 53a, y: 7ff  a(      78Ä         ∂à a(7_   ∑(    73Ä  ∑(           a(          77Ä   7:     

         56(             5700000): PASS, mode: 1, a: 79f, b: 5cc, y: 7ff  0     ΩP78Ä            7(Ä a( ∂à   73Ä         7_   ∑(      ˇ  ˇ        ?p   7:     

         57(             5800000): PASS, mode: 1, a: 691, b: 1ce, y: 7ff  0     ΩP78Ä            7(Ä a( ∂à   73Ä         7_   ∑(      ˇ  ˇ        ?p    7:     

         58(             5900000): PASS, mode: 1, a: 6a8, b: 144, y: 7ec  0     ΩP78Ä            7(Ä a( ∂à   73Ä         7_   ∑(      ˇ  ˇ        ?p    7:     

         59(             6000000): PASS, mode: 1, a: 65b, b: 010, y: 66b  a(      78Ä         ∂à a(7_   ∑(    73Ä  ∑(           a(  Ï  Ï      77Ä   7:     

         60(             6100000): PASS, mode: 1, a: 4f5, b: 6c6, y: 7ff  a(      78Ä         ∂à a(7_   ∑(    73Ä  ∑(           a(  k  K      77Ä   7:     

         61(             6200000): PASS, mode: 1, a: e1c, b: 134, y: f50  0     ΩP78Ä            7(Ä a( ∂à   73Ä         7_   ∑(      ˇ  ˇ        ?p   7:     

         62(             6300000): PASS, mode: 1, a: 8f8, b: 7ef, y: 0e7  0     ΩP78Ä            7(Ä a( ∂à   73Ä         7_   ∑(      P  P        ?p   7:     

         63(             6400000): PASS, mode: 1, a: dfe, b: 17a, y: f78  0     ΩP78Ä            7(Ä a( ∂à   73Ä         7_   ∑(       Á   Á        ?p   7:     

         64(             6500000): PASS, mode: 1, a: 90f, b: 318, y: c27  0     ΩP78Ä            7(Ä a( ∂à   73Ä         7_   ∑(      x  x        ?p   7:     

         65(             6600000): PASS, mode: 1, a: b8b, b: 7d3, y: 35e  a(      78Ä         ∂à a(7_   ∑(    73Ä  ∑(           a(  '  '      77Ä   7:     

         66(             6700000): PASS, mode: 1, a: ee8, b: 6dc, y: 5c4  0     ΩP78Ä            7(Ä a( ∂à   73Ä         7_   ∑(      ^  ^      77Ä   7:     

         67(             6800000): PASS, mode: 1, a: d20, b: 7e0, y: 500  a(      78Ä         ∂à a(7_   ∑(    73Ä  ∑(           a(  ƒ  Ñ      77Ä   7:     

         68(             6900000): PASS, mode: 1, a: b7a, b: 24f, y: dc9  a(      78Ä         ∂à a(7_   ∑(    73Ä  ∑(           a(            77Ä   7:     

         69(             7000000): PASS, mode: 1, a: c9f, b: 5b9, y: 258  a(      78Ä         ∂à a(7_   ∑(    73Ä  ∑(           a(  
…  
â      77Ä   7:     

         70(             7100000): PASS, mode: 1, a: 995, b: 36f, y: d04  0     ΩP78Ä            7(Ä a( ∂à   73Ä         7_   ∑(      X  X      77Ä   7:     

         71(             7200000): PASS, mode: 1, a: cc3, b: 40c, y: 0cf  a(      78Ä         ∂à a(7_   ∑(    73Ä  ∑(           a(  
        77Ä   7:     

         72(             7300000): PASS, mode: 1, a: 812, b: 107, y: 919  a(      78Ä         ∂à a(7_   ∑(    73Ä  ∑(           a(   œ   œ      77Ä   7:     

         73(             7400000): PASS, mode: 1, a: 9fb, b: 194, y: b8f  a(      78Ä         ∂à a(7_   ∑(    73Ä  ∑(           a(  	  	      77Ä   7:     

         74(             7500000): PASS, mode: 1, a: 817, b: 6eb, y: f02  a(      78Ä         ∂à a(7_   ∑(    73Ä  ∑(           a(  è  è      77Ä   7:     

         75(             7600000): PASS, mode: 1, a: ac4, b: 40e, y: ed2  a(      78Ä         ∂à a(7_   ∑(    73Ä  ∑(           a(          77Ä   7:     

         76(             7700000): PASS, mode: 1, a: ac4, b: 40e, y: ed2  a(      78Ä         ∂à a(7_   ∑(    73Ä  ∑(           a(          77Ä   7:     

         77(             7800000): PASS, mode: 1, a: ac4, b: 40e, y: ed2  a(      78Ä         ∂à a(7_   ∑(    73Ä  ∑(           a(          77Ä   7:     

         78(             7900000): PASS, mode: 1, a: ac4, b: 40e, y: ed2  a(      78Ä         ∂à a(7_   ∑(    73Ä  ∑(           a(          77Ä   7:     

         79(             8000000): PASS, mode: 1, a: ac4, b: 40e, y: ed2  a(      78Ä         ∂à a(7_   ∑(    73Ä  ∑(           a(          77Ä   7:     

         80(             8100000): PASS, mode: 1, a: ac4, b: 40e, y: ed2  a(      78Ä         ∂à a(7_   ∑(    73Ä  ∑(           a(          77Ä   7:     

         81(             8200000): PASS, mode: 1, a: ac4, b: 40e, y: ed2  a(      78Ä         ∂à a(7_   ∑(    73Ä  ∑(           a(          77Ä   7:     

         82(             8300000): PASS, mode: 1, a: ac4, b: 40e, y: ed2  a(      78Ä         ∂à a(7_   ∑(    73Ä  ∑(           a(          77Ä   7:     

         83(             8400000): PASS, mode: 1, a: ac4, b: 40e, y: ed2  a(      78Ä         ∂à a(7_   ∑(    73Ä  ∑(           a(          77Ä   7:     

PASS: All vectors passed.

